^C:\WORK\WEBCV\CV-WEBVISUALIZTION\SAMPLES\CPP\CV-WEB\CV-WEB\STDAFX.CPP
/c /IC:\INSTALL\CPPBOOST\BOOST_1_70_0 /ZI /nologo /W3 /WX- /sdl /Od /Oy- /D WIN32 /D _DEBUG /D _CONSOLE /D _UNICODE /D UNICODE /Gm /EHsc /RTC1 /MDd /GS /fp:precise /Zc:wchar_t /Zc:forScope /Zc:inline /Yc"stdafx.h" /Fp"DEBUG\CV-WEB.PCH" /Fo"DEBUG\\" /Fd"DEBUG\VC140.PDB" /Gd /TP /analyze- C:\WORK\WEBCV\CV-WEBVISUALIZTION\SAMPLES\CPP\CV-WEB\CV-WEB\STDAFX.CPP
^C:\WORK\WEBCV\CV-WEBVISUALIZTION\SAMPLES\CPP\CV-WEB\CV-WEB\CV-WEB.CPP
/c /IC:\INSTALL\CPPBOOST\BOOST_1_70_0 /ZI /nologo /W3 /WX- /sdl /Od /Oy- /D WIN32 /D _DEBUG /D _CONSOLE /D _UNICODE /D UNICODE /Gm /EHsc /RTC1 /MDd /GS /fp:precise /Zc:wchar_t /Zc:forScope /Zc:inline /Fo"DEBUG\\" /Fd"DEBUG\VC140.PDB" /Gd /TP /analyze- C:\WORK\WEBCV\CV-WEBVISUALIZTION\SAMPLES\CPP\CV-WEB\CV-WEB\CV-WEB.CPP
